{
  "status": {
    "code": "200",
    "msg": "success"
  },
  "data": [
      {
          "State Code": "CHINSTAT",
          "State Name": "Chin State",
          "State BName": "ခ်င္းျပည္နယ္",
          "isState": "0",
          "DivNrcCode": "4",
          "DivNrcCodeMyan": "၄"
      },
      {
          "State Code": "KACHSTAT",
          "State Name": "Kachin State",
          "State BName": "ကခ်င္ျပည္နယ္",
          "isState": "0",
          "DivNrcCode": "1",
          "DivNrcCodeMyan": "၁"
      },
      {
          "State Code": "KAYASTAT",
          "State Name": "Kayah State",
          "State BName": "ကယားျပည္နယ္",
          "isState": "0",
          "DivNrcCode": "2",
          "DivNrcCodeMyan": "၂"
      },
      {
          "State Code": "KAYISTAT",
          "State Name": "Kayin State",
          "State BName": "ကရင္ျပည္နယ္",
          "isState": "0",
          "DivNrcCode": "3",
          "DivNrcCodeMyan": "၃"
      },
      {
          "State Code": "MONSTAT",
          "State Name": "Mon State",
          "State BName": "မြန္ျပည္နယ္",
          "isState": "0",
          "DivNrcCode": "10",
          "DivNrcCodeMyan": "၁၀"
      },
      {
          "State Code": "RAKHSTAT",
          "State Name": "Rakhine State",
          "State BName": "ရခိုင္ျပည္နယ္",
          "isState": "0",
          "DivNrcCode": "11",
          "DivNrcCodeMyan": "၁၁"
      },
      {
          "State Code": "SHANSTAT",
          "State Name": "Shan State",
          "State BName": "ရွမ္းျပည္နယ္",
          "isState": "0",
          "DivNrcCode": "13",
          "DivNrcCodeMyan": "၁၃"
      },
      {
      "State Code": "AYEYDIVI",
      "State Name": "Ayeyarwady Division",
      "State BName": "ဧရာဝတီတိုင္းေဒသႀကီး",
      "isState": "1",
      "DivNrcCode": "14",
      "DivNrcCodeMyan": "၁၄"
    },
    {
      "State Code": "BAGODIVI",
      "State Name": "Bago Division",
      "State BName": "ပဲခူးတုိင္းေဒသႀကီး",
      "isState": "1",
      "DivNrcCode": "7",
      "DivNrcCodeMyan": "၇"
    },
    {
      "State Code": "MAGWDIVI",
      "State Name": "Magway Division",
      "State BName": "မေကြးတိုင္းေဒသႀကီး",
      "isState": "1",
      "DivNrcCode": "8",
      "DivNrcCodeMyan": "၈"
    },
    {
      "State Code": "MANDDIVI",
      "State Name": "Mandalay Division",
      "State BName": "မႏၱေလးတိုင္းေဒသႀကီး",
      "isState": "1",
      "DivNrcCode": "9",
      "DivNrcCodeMyan": "၉"
    },
    {
      "State Code": "NAPTWDIVI",
      "State Name": "Naypyitaw Union Territory",
      "State BName": "ေနျပည္ေတာ္ ျပည္ေထာင္စုနယ္ေျမ",
      "isState": "1",
      "DivNrcCode": "9",
      "DivNrcCodeMyan": "၉"
    },
    {
      "State Code": "SAGADIVI",
      "State Name": "Sagaing Division",
      "State BName": "စစ္ကိုင္းတိုင္းေဒသႀကီး",
      "isState": "1",
      "DivNrcCode": "5",
      "DivNrcCodeMyan": "၅"
    },
    {
      "State Code": "TANIDIVI",
      "State Name": "Tanintharyi Division",
      "State BName": "တနသၤာရီတိုင္းေဒသႀကီး",
      "isState": "1",
      "DivNrcCode": "6",
      "DivNrcCodeMyan": "၆"
    },
    {
      "State Code": "YANGDIVI",
      "State Name": "Yangon Division",
      "State BName": "ရန္ကုန္တိုင္းေဒသႀကီး",
      "isState": "1",
      "DivNrcCode": "12",
      "DivNrcCodeMyan": "၁၂"
    }
   
  ]
}
